{
    "apps": [
        {
            "name": "AC-Control",
            "script": "./node_modules/.bin/ts-node",
            "args":"./server.ts",
            "watch": true,
            "ignore_watch":[],
            "instances": "1",
            "env": {
                "production": true
            }
        }
    ]
}

